1 Getting Started – Spatial Data Science
…
Before plotting Figure 1.1 we had to read the data, in this case from a file (Section 7.1). Printing a data summary for the first three records of three attribute variables shows:

R
Python

Code

nc |> select(AREA, BIR74, SID74) |> print(n = 3)

# Simple feature collection with 100 features and 3 fields
# Geometry type: MULTIPOLYGON
# Dimension:     XY
# Bounding box:  xmin: -84.3 ymin: 33.9 xmax: -75.5 ymax: 36.6
# Geodetic CRS:  NAD27
# # A tibble: 100 × 4
#    AREA BIR74 SID74                                             geom
#   <dbl> <dbl> <dbl>                               <MULTIPOLYGON [°]>
# 1 0.114  1091     1 (((-81.5 36.2, -81.5 36.3, -81.6 36.3, -81.6 36…
# 2 0.061   487     0 (((-81.2 36.4, -81.2 36.4, -81.3 36.4, -81.3 36…
# 3 0.143  3188     5 (((-80.5 36.2, -80.5 36.3, -80.5 36.3, -80.5 36…
# # ℹ 97 more rows
…
