Spatial Data Science with R
…
(file <- system.file("gpkg/nc.gpkg", package="sf"))
#> [1] "/home/edzer/R/x86_64-pc-linux-gnu-library/3.4/sf/gpkg/nc.gpkg"

Never use system.file if you want to read your own data; in that case, fname should be the data source (typically file) name (section 1.2). (Parens around this expression are used to have the result not only stored, but also printed.)

Then, we read this file into R using read_sf:

(nc <- read_sf(file))
#> Simple feature collection with 100 features and 14 fields
#> geometry type:  MULTIPOLYGON
#> dimension:      XY
#> bbox:           xmin: -84.3 ymin: 33.9 xmax: -75.5 ymax: 36.6
#> epsg (SRID):    4267
#> proj4string:    +proj=longlat +datum=NAD27 +no_defs
#> # A tibble: 100 x 15
#>     AREA PERIMETER CNTY_ CNTY_ID NAME    FIPS  FIPSNO CRESS_ID BIR74 SID74
#>    <dbl>     <dbl> <dbl>   <dbl> <chr>   <chr>  <dbl>    <int> <dbl> <dbl>
#> 1 0.114       1.44  1825    1825 Ashe    37009  37009        5  1091  1.00
#> 2 0.0610      1.23  1827    1827 Allegh… 37005  37005        3   487  0   
#> 3 0.143       1.63  1828    1828 Surry   37171  37171       86  3188  5.00
#> 4 0.0700      2.97  1831    1831 Currit… 37053  37053       27   508  1.00
#> 5 0.153       2.21  1832    1832 Northa… 37131  37131       66  1421  9.00
#> 6 0.0970      1.67  1833    1833 Hertfo… 37091  37091       46  1452  7.00
#> # ... with 94 more rows, and 5 more variables: NWBIR74 <dbl>, BIR79 <dbl>,
#> #   SID79 <dbl>, NWBIR79 <dbl>, geom <MULTIPOLYGON [°]>
which creates a “spatial tibble”:

class(nc)
#> [1] "sf"         "tbl_df"     "tbl"        "data.frame"

This object is transformed into a new coordinate reference system (North Carolina State Plane, with EPSG code 32119):

(nc.32119 <- st_transform(nc, 32119))
#> Simple feature collection with 100 features and 14 fields
#> geometry type:  MULTIPOLYGON
#> dimension:      XY
#> bbox:           xmin: 124000 ymin: 14700 xmax: 931000 ymax: 318000
#> epsg (SRID):    32119
#> proj4string:    +proj=lcc +lat_1=36.16666666666666 +lat_2=34.33333333333334 +lat_0=33.75 +lon_0=-79 +x_0=609601.22 +y_0=0 +ellps=GRS80 +towgs84=0,0,0,0,0,0,0 +units=m +no_defs
#> # A tibble: 100 x 15
#>     AREA PERIMETER CNTY_ CNTY_ID NAME    FIPS  FIPSNO CRESS_ID BIR74 SID74
#>    <dbl>     <dbl> <dbl>   <dbl> <chr>   <chr>  <dbl>    <int> <dbl> <dbl>
#> 1 0.114       1.44  1825    1825 Ashe    37009  37009        5  1091  1.00
#> 2 0.0610      1.23  1827    1827 Allegh… 37005  37005        3   487  0   
#> 3 0.143       1.63  1828    1828 Surry   37171  37171       86  3188  5.00
#> 4 0.0700      2.97  1831    1831 Currit… 37053  37053       27   508  1.00
#> 5 0.153       2.21  1832    1832 Northa… 37131  37131       66  1421  9.00
#> 6 0.0970      1.67  1833    1833 Hertfo… 37091  37091       46  1452  7.00
#> # ... with 94 more rows, and 5 more variables: NWBIR74 <dbl>, BIR79 <dbl>,
#> #   SID79 <dbl>, NWBIR79 <dbl>, geom <MULTIPOLYGON [m]>

and a single attribute column is selected

(nc.32119.bir74 <- select(nc.32119, BIR74))
#> Simple feature collection with 100 features and 1 field
#> geometry type:  MULTIPOLYGON
#> dimension:      XY
#> bbox:           xmin: 124000 ymin: 14700 xmax: 931000 ymax: 318000
#> epsg (SRID):    32119
#> proj4string:    +proj=lcc +lat_1=36.16666666666666 +lat_2=34.33333333333334 +lat_0=33.75 +lon_0=-79 +x_0=609601.22 +y_0=0 +ellps=GRS80 +towgs84=0,0,0,0,0,0,0 +units=m +no_defs
#> # A tibble: 100 x 2
#>   BIR74                                                               geom
#>   <dbl>                                                 <MULTIPOLYGON [m]>
#> 1  1091 (((387345 278387, 381334 282774, 379438 282943, 373250 290553, 36…
#> 2   487 (((408602 292425, 408565 293985, 406643 296873, 406420 3e+05, 402…
#> 3  3188 (((478717 277490, 476936 278867, 471503 279173, 470806 281394, 46…
#> 4   508 (((878194 289128, 877381 291117, 875994 290881, 874941 292805, 87…
#> 5  1421 (((769835 277796, 768364 274842, 762616 274401, 763168 269009, 76…
#> 6  1452 (((812328 277876, 791158 277012, 789882 277579, 777724 277107, 76…
#> # ... with 94 more rows
…
